Process expression
…
Filter individuals

Remove individuals-cell type with less than 10 cells for a given cell type.

(n_cells_ind_cell_type <- sum_expression %>% 
  dplyr::select(cell_type,individual_id,n_cells) %>% 
  unique() %>% arrange(n_cells))

# A tibble: 1,514 x 3
   cell_type          individual_id n_cells
   <chr>              <chr>           <int>
 1 Astrocytes         SD030/18            1
 2 Endothelial cells  SD015/18            1
 3 Pericytes          SD015/18            1
 4 Inhibitory neurons S13-096             1
 5 Pericytes          SM-CJGIM            1
 6 Endothelial cells  SM-CJGIM            1
 7 Endothelial cells  SM-CTEGO            1
 8 Endothelial cells  SM-CJFOL            1
 9 Endothelial cells  SM-CTECO            1
10 Inhibitory neurons SM-CJFOC            1
# … with 1,504 more rows
…
